<svg width="167" height="80" viewBox="0 0 167 80" fill="none" xmlns="http://www.w3.org/2000/svg">
<path d="M26.0532 51.5145C26.0532 59.9306 19.4975 63.815 10.9105 63.815C6.2015 63.815 1.4925 62.5665 -1.60066 60.5318V51.9306C2.09267 54.7977 6.617 56.4624 10.6797 56.4624C14.7423 56.4624 17.42 55.0289 17.42 51.9306C17.42 48.6474 14.9732 47.3988 9.84867 46.1965C1.44633 44.3468 -2.01617 40.8786 -2.01617 33.896C-2.01617 25.6647 4.124 21.5954 12.3417 21.5954C16.866 21.5954 20.5593 22.6127 24.0218 24.6936V32.8324C20.5593 30.3815 17.0507 28.7168 12.7572 28.7168C8.87917 28.7168 6.80167 30.5665 6.80167 33.2486C6.80167 35.9306 8.46366 37.3642 13.1727 38.5665C22.129 40.8324 26.0532 44.1156 26.0532 51.5145ZM-17.8052 63.5838H-9.5875V0H-17.8052V63.5838ZM-34.1943 63.5838H-25.9767V0H-34.1943V63.5838ZM-94.8573 14.7514C-94.8573 9.80347 -92.5952 8 -88.9018 8C-86.2242 8 -84.1928 8.83237 -81.9307 10.2659V2.03468C-84.1928 0.601156 -86.6397 0 -89.9175 0C-98.1352 0 -103.629 4.94798 -103.629 14.9827V22.5665H-110V30.1503H-103.629V63.5838H-94.6265V30.1503H-81.0997V22.5665H-94.8112V14.7514H-94.8573ZM-51.83 55.815C-54.1314 56.2216 -56.4643 56.4227 -58.8012 56.4162C-64.7567 56.4162 -68.45 54.1503 -68.45 48.185V22.5202H-77.2678V48.7861C-77.2217 60.1156 -70.0658 63.815 -58.5703 63.815C-53.8613 63.815 -47.4903 63.2139 -42.7813 61.9653V22.5665H-51.83V55.815ZM41.6113 49.2486V29.9653H53.1068V22.5665H41.6113V12.3006H32.6088V22.5665H27.2997V30.1503H32.8397V51.2832C32.8397 60.5318 38.3797 63.815 44.9353 63.815C48.3499 63.8866 51.7288 63.108 54.7688 61.5491V53.3179C52.322 54.7514 50.0598 55.5838 47.3822 55.5838C43.6427 55.815 41.6113 54.1503 41.6113 49.2486ZM119.264 21.9191C113.74 21.9453 108.311 23.3604 103.475 26.0347V63.5838H112.477V31.5838C114.627 30.7522 116.913 30.3288 119.217 30.3353C120.657 30.3592 122.093 30.4984 123.511 30.7514L120.233 21.9191H119.264ZM157.767 22.5665L146.502 54.3815L134.822 22.5665H125.173L141.978 64.6474L136.253 80H145.071L167 22.5202L157.767 22.5665ZM97.9347 42.6821C97.9347 55.2139 89.1168 63.815 77.0212 63.815C64.9255 63.815 56.1077 55.2139 56.1077 42.6821C56.1077 30.1503 64.9255 21.5491 77.0212 21.5491C89.1168 21.5491 97.9347 30.1503 97.9347 42.6821ZM88.7475 42.6821C88.7475 34.4509 83.8077 29.3642 76.8827 29.3642C70.1423 29.3642 65.2025 34.4971 65.2025 42.6821C65.2025 50.8671 70.1423 56 76.8827 56C83.8077 56 88.7475 50.8671 88.7475 42.6821Z" fill="#0A151B"/>
</svg>
